…
<!-- end list -->

    ## ── Attaching packages ────────────────────────────────────────────────────────── tidyverse 1.3.0 ──

    ## ✓ ggplot2 3.2.1     ✓ purrr   0.3.3
    ## ✓ tibble  2.1.3     ✓ dplyr   0.8.4
    ## ✓ tidyr   1.0.2     ✓ stringr 1.4.0
    ## ✓ readr   1.3.1     ✓ forcats 0.4.0

    ## ── Conflicts ───────────────────────────────────────────────────────────── tidyverse_conflicts() ──
    ## x dplyr::filter() masks stats::filter()
    ## x dplyr::lag()    masks stats::lag()

    ## # A tibble: 50 x 61
    ##    playlist_id playlist_name playlist_img playlist_owner_… playlist_owner_…
    ##    <chr>       <chr>         <chr>        <chr>            <chr>           
    ##  1 37i9dQZF1D… Today's Top … https://i.s… Spotify          spotify         
    ##  2 37i9dQZF1D… Today's Top … https://i.s… Spotify          spotify         
    ##  3 37i9dQZF1D… Today's Top … https://i.s… Spotify          spotify         
    ##  4 37i9dQZF1D… Today's Top … https://i.s… Spotify          spotify         
    ##  5 37i9dQZF1D… Today's Top … https://i.s… Spotify          spotify         
    ##  6 37i9dQZF1D… Today's Top … https://i.s… Spotify          spotify         
    ##  7 37i9dQZF1D… Today's Top … https://i.s… Spotify          spotify         
    ##  8 37i9dQZF1D… Today's Top … https://i.s… Spotify          spotify         
    ##  9 37i9dQZF1D… Today's Top … https://i.s… Spotify          spotify         
    ## 10 37i9dQZF1D… Today's Top … https://i.s… Spotify          spotify         
    ## # … with 40 more rows, and 56 more variables: danceability <dbl>, energy <dbl>,
    ## #   key <int>, loudness <dbl>, mode <int>, speechiness <dbl>,
    ## #   acousticness <dbl>, instrumentalness <dbl>, liveness <dbl>, valence <dbl>,
    ## #   tempo <dbl>, track.id <chr>, analysis_url <chr>, time_signature <int>,
    ## #   added_at <chr>, is_local <lgl>, primary_color <chr>, added_by.href <chr>,
    ## #   added_by.id <chr>, added_by.type <chr>, added_by.uri <chr>,
    ## #   added_by.external_urls.spotify <chr>, track.artists <list>,
    ## #   track.available_markets <list>, track.disc_number <int>,
    ## #   track.duration_ms <int>, track.episode <lgl>, track.explicit <lgl>,
…
